<?xml version="1.0" encoding="utf-8"?>
<!-- Generator: Adobe Illustrator 24.0.1, SVG Export Plug-In . SVG Version: 6.00 Build 0)  -->
<svg version="1.1" id="圖層_1" xmlns="http://www.w3.org/2000/svg" xmlns:xlink="http://www.w3.org/1999/xlink" x="0px" y="0px"
	 viewBox="0 0 375 329" style="enable-background:new 0 0 375 329;" xml:space="preserve">
<style type="text/css">
	.st0{fill-rule:evenodd;clip-rule:evenodd;fill:#FF6600;}
</style>
<title>BG_author--M</title>
<desc>Created with Sketch.</desc>
<polygon class="st0" points="375,307.5 375,0 287.9,0 155.8,132.2 352.6,329 353.5,329 "/>
</svg>
